{
  "current_page": 1,
  "per_page": 1,
  "total_pages": 1,
  "url": "http://localhost:3000/api/products.json?&q[id_in][]=162206",
  "products": [
    {
      "id": 162206,
      "work_id": 102740,
      "full_title": "compilation",
      "subtitle": null,
      "pub_date": null,
      "publishing_status": "09",
      "out_of_print_date": null,
      "product_form": "00",
      "edition_type_codes": null,
      "edition_statement": null,
      "proprietary_format_description": "",
      "isbn": "No ISBN",
      "edition_number": null,
      "extents": {
        "page_count": null,
        "main_content_page_count": null,
        "number_of_words": null,
        "front_matter_page_count": null,
        "back_matter_page_count": null,
        "total_numbered_pages": null,
        "production_page_count": null,
        "absolute_page_count": null,
        "number_of_pages_in_print_counterpart": null,
        "notional_number_of_pages_in_print_counterpart": null,
        "content_page_count": null,
        "total_unnumbered_insert_page_count": null,
        "filesize_bytes": null
      },
      "measurements": {
        "product_dimensions_mm": null,
        "product_dimensions_in": null,
        "page_trim_dimensions_mm": null,
        "page_trim_dimensions_in": null,
        "page_trim_height_mm": null,
        "page_trim_height_in": null,
        "page_trim_width_mm": null,
        "page_trim_width_in": null,
        "product_height_mm": null,
        "product_height_in": null,
        "product_width_mm": null,
        "product_width_in": null
      },
      "authorship": "",
      "authorship_overridden": false,
      "series_ids": [],
      "prices": [],
      "contributors": [],
      "supportingresources": [],
      "marketingtexts": [],
      "subject_ids": [],
      "main_subject_id": null,
      "all_related_products": [],
      "marketing_highlight_work_ids": [],
      "rights_available_countries": [
        "AD",
        "AE",
        "AF",
        "AG",
        "AI",
        "AL",
        "AM",
        "AO",
        "AQ",
        "AR",
        "AS",
        "AT",
        "AU",
        "AW",
        "AX",
        "AZ",
        "BA",
        "BB",
        "BD",
        "BE",
        "BF",
        "BG",
        "BH",
        "BI",
        "BJ",
        "BL",
        "BM",
        "BN",
        "BO",
        "BQ",
        "BR",
        "BS",
        "BT",
        "BV",
        "BW",
        "BY",
        "BZ",
        "CA",
        "CC",
        "CD",
        "CF",
        "CG",
        "CH",
        "CI",
        "CK",
        "CL",
        "CM",
        "CN",
        "CO",
        "CR",
        "CU",
        "CV",
        "CW",
        "CX",
        "CY",
        "CZ",
        "DE",
        "DJ",
        "DK",
        "DM",
        "DO",
        "DZ",
        "EC",
        "EE",
        "EG",
        "EH",
        "ER",
        "ES",
        "ET",
        "FI",
        "FJ",
        "FK",
        "FM",
        "FO",
        "FR",
        "GA",
        "GB",
        "GD",
        "GE",
        "GF",
        "GG",
        "GH",
        "GI",
        "GL",
        "GM",
        "GN",
        "GP",
        "GQ",
        "GR",
        "GS",
        "GT",
        "GU",
        "GW",
        "GY",
        "HK",
        "HM",
        "HN",
        "HR",
        "HT",
        "HU",
        "ID",
        "IE",
        "IL",
        "IM",
        "IN",
        "IO",
        "IQ",
        "IR",
        "IS",
        "IT",
        "JE",
        "JM",
        "JO",
        "JP",
        "KE",
        "KG",
        "KH",
        "KI",
        "KM",
        "KN",
        "KP",
        "KR",
        "KW",
        "KY",
        "KZ",
        "LA",
        "LB",
        "LC",
        "LI",
        "LK",
        "LR",
        "LS",
        "LT",
        "LU",
        "LV",
        "LY",
        "MA",
        "MC",
        "MD",
        "ME",
        "MF",
        "MG",
        "MH",
        "MK",
        "ML",
        "MM",
        "MN",
        "MO",
        "MP",
        "MQ",
        "MR",
        "MS",
        "MT",
        "MU",
        "MV",
        "MW",
        "MX",
        "MY",
        "MZ",
        "NA",
        "NC",
        "NE",
        "NF",
        "NG",
        "NI",
        "NL",
        "NO",
        "NP",
        "NR",
        "NU",
        "NZ",
        "OM",
        "PA",
        "PE",
        "PF",
        "PG",
        "PH",
        "PK",
        "PL",
        "PM",
        "PN",
        "PR",
        "PS",
        "PT",
        "PW",
        "PY",
        "QA",
        "RE",
        "RO",
        "RS",
        "RU",
        "RW",
        "SA",
        "SB",
        "SC",
        "SD",
        "SE",
        "SG",
        "SH",
        "SI",
        "SJ",
        "SK",
        "SL",
        "SM",
        "SN",
        "SO",
        "SR",
        "SS",
        "ST",
        "SV",
        "SX",
        "SY",
        "SZ",
        "TC",
        "TD",
        "TF",
        "TG",
        "TH",
        "TJ",
        "TK",
        "TL",
        "TM",
        "TN",
        "TO",
        "TR",
        "TT",
        "TV",
        "TW",
        "TZ",
        "UA",
        "UG",
        "UM",
        "US",
        "UY",
        "UZ",
        "VA",
        "VC",
        "VE",
        "VG",
        "VI",
        "VN",
        "VU",
        "WF",
        "WS",
        "YE",
        "YT",
        "ZA",
        "ZM",
        "ZW"
      ],
      "rights_not_available_countries": [],
      "digest": "596afcf1207f7cc4357c0f510f8c7dde"
    }
  ]
}