{
  "origin": "#advice#",
  "holiday": [
    "New Year",
    "Chinese New Year",
    "Valentine’s Day",
    "Carnival or Mardi Gras",
    "Mother’s Day",
    "Father’s Day",
    "Midsummer",
    "Mid-Autumn festival",
    "Hallowe’en",
    "Harvest Festivals",
    "Thanksgiving",
    "Midwinter",
    "International Workers Day",
    "Dragon Boat Festival",
    "Chinese National Day",
    "St Brigid’s Day",
    "St Patrick’s Day",
    "US Independence Day"],
 "historicempires": [
"the Assyrian Empires",
"Babylonia",
"Ancient Egypt",
"Ancient Greece",
"the Hittite Empire",
"Ancient / Biblical Israel",
"Mesopotamia",
"the Persian Empire",
"Ancient Rome",
"Sumer",
"Etruria",
"the Byzantine Empire",
"the Mongol Empire",
"the Ottoman Empire",
"the British Empire",
"the French Colonial Empire",
"the Ashanti Kingdoms",
"the Aztec Empire",
"the Mayan states"
],
"fictionadj": ["steamy", "noir", "intense", "languid", "excoriating"],
"fictiontypes": [ "blockbusters", "mysteries", "thrillers", "memoirs", "coming-of-agers" ],
"centuries": ["16th century", "17th century", "18th century", "19th century", "20th century", "21st century" ],
"places": [ "Provence", "Wallonia", "Antwerp", "Donegal", "Mayo", "Khartoum", "Nauru", "Havana" ],
  "advice": [
   "Time and place qualifiers are not just for non-fiction –#fictionadj# #fictiontypes# set in #centuries# #places# can also benefit from them!",
  "How will that great cover image look online? Try shrinking it to 500px on its largest size and then enlarge it again. This is what can happen when it goes through metadata aggregators!",
  "Keywords that repeat words or phrases used in the title, subtitle, or descriptions are probably redundant. Think about what a buyer might be looking for that isn't in your metadata already.",
  "ONIX product measurements are the external dimensions of the book, including any retail packaging such as a slipcase, not the page trim size. Hardbacks are taller and wider than page trim size, so make sure you measure and weigh them.",
  "ONIX product form codes ending with 'A', such as 'BA', 'PA', 'CA', are too generic to be useful to the book trade. Try to use a more specific code!",
  "When is a hardback not a hardback? When it has other characteristics that are more important. For example, unusually-large children's hardbacks might be better coded as 'BM: Big book'.",
  "Books giving guidance on legal matters are almost always relevant only to particular territories. Use Thema, BIC, and BISAC codes to express this.",
  "Books about historical subjects almost always benefit from the generous use of Thema, BIC, and BISAC codes to tell people what period they relate to.",
  "Putting some time aside to read through Thema, BIC, and BISAC subject code lists will be rewarded by new insights every time.",
  "BIC subject codes are no longer being updated, but are still necessary. Add BIC, BISAC, and Thema for best effect.",
  "Every ISBN-10 has an equivalent ISBN-13, starting with 978. However, the last digit is likely to be different, and is definitely not going to be an X. It's digits-only in an ISBN-13!",
  "ISBN-13s can start with 979 as well as 978, but such ISBN-13s have no equivalent ISBN-10.",
  "A Digital Object Identifier (DOI) is not an 'identifier for a digital object', but instead is a 'digital identifier for an object'. It doesn't need to be digital to have a DOI!",
  "ISBNs are for books, ISNIs are for people. Go to http://www.isni.org to find out more, and look some up",
  "Childrens' Book Marketing Codes are not just for use by childrens publishers. Even a professional insitute can use them if they publish a guide for a young audience.",
  "Looking for a book distributor? Check that they accept ONIX and do not have a ridiculously limited set of proprietary codes that you are forced to use. Yeah, you know who you are.",
  "Some subject codes suggest a professional/academic audience, others are general interest. Read the notes closely!",
  "It is almost never too early to be sending out detailed metadata. Buyers are planning ahead, and want to see what you're planning well in advance. Do your best as early as possible, and refine later.",
  "Accurate product measurements – height, width, thickness, and weight – are essential for online book retailers to be able to accurately price postage. Estimates are fine, but make sure you confirm them when proofs are available",
  "If you buy a title from another publisher along with stock they have printed, you can keep using their ISBN until you reprint, when you must assign your own.",
   "As well as regular time qualifiers (e.g. '3KL: c 1000 CE to c 1500'), Thema has codes relating to particular periods in national histories – e.g. '3KL-IE-N: Norman Ireland (1169 to c 1350)'",
  "'Bookland': a fictitious country, with the 978 prefix allocated in the EAN system to make the old 10 digit ISBNs cataloguable. (But it's still a real place)",
  "Musicland, the EAN prefix '979' used for sheet music, was invaded by Bookland and has been confined to '979-0'. Poor Musicland!",
  "Academic publishers: go here https://orcid.org/ and learn about open, persistent, and non-proprietary digital identification for researchers that is ONIX compatible.",
  "Planning special books for #holiday#? Thema has you covered, with the '5HC: Holidays & celebrations' interest qualifiers",
  "We eagerly await expansion of the Thema '5X: Explicit material' interest qualifier, so we can warn people more accurately of the eye-boggling content within",
  "Will someone please think of the children? And then provide specific interest age qualifiers for them? Yes, Thema will, at https://ns.editeur.org/thema/en/5A",
  "The first International Standard Musical Work Code (ISWC) was assigned in 1995, for the song 'Dancing Queen' by ABBA. This fact is not related to book publishing. Sorry",
  "Subject ... codes ... in ... spaaaaaaaaaaaaace!  Why not code up your dwarf planets with one of the Thema '1Z: Space, planets & extraterrestrial locations' qualifiers?",
  "Gone but not forgotten: look for Thema codes about #historicempires# under '1QB: Historical states, empires & regions'",
  "Pop quiz: what's the difference between Thema codes 'WFX: Adult colouring & activity books' and 'YBGC: Colouring books'? Answer: possibly 20% VAT in the UK. See VAT Notice 701/10 for more info",
  "We are not your accountant, so go read HMRC VAT Notice 701/10 for information on zero rating of books and printed matter in the UK",
"When multiple volumes sell as a single product, it needs its own ISBN. Assign ISBNs to the single volumes also, even if they are not individually for sale. ONIX provides an 'internal use only' sales restriction to support this.",
"Help get a grip on your publishing schedule with multiple contract delivery dates. Having expected delivery dates for outline, first chapter, initial draft, permissions, etc allows progress to be demonstrated and confidence to be built.",
"Childrens' Book Marketing Codes are not a substitute for Thema, BIC, or BISAC subject coding – use both for best effect.",
"Read about how to allocate Childrens' Book Marketing Codes, with worked examples, here http://www.bic.org.uk/files/pdfs/Cbmcuse1.pdf",
"A common error made when assigning BIC or Thema codes is to specify one code that is more general than another. If you use 'FKW: Occult fiction', don't also use 'FK' – we already know it's scary!",
"@EDItEUR_org have a great set of worked examples on how best to assign Thema codes, covering a huge range of situations. PDF here: https://www.editeur.org/files/Thema/Thema%20Worked%20Examples/Thema%20version%201.3%20Worked%20Examples-2.pdf",
"Read up on Thema support for publishers who are increasing awareness of diversity and inclusivity, with this PDF from @EDItEUR_org https://www.editeur.org/files/Thema/20180604%20Thema%20Diversity%20+%20inclusivity%20briefing%20v1.0.pdf",
"When specifying your products' sales rights, it is as important to state what countries you are not selling in as it is to state which ones you are in. Don't give retailers an excuse to take liberties with your legal position!",
"Automatic stock replenishment, offered by many distributors, gives you the low risk of print-on-demand, and the surety of timely delivery of orders to retailers.",
"The three most important things to keep an eye on as a small publisher are: 1. Cashflow 2. Cashflow 3. Cashflow",
"No, you can't buy ISBNs from a different country, even if they are much cheaper over there.",
"Digital Original: A digital product that, at the time of publication, has or had no print counterpart and that is or was not expected to have a print counterpart for a reasonable time (recommended at least 30 days following publication)",
"Edition code 'CMB': an edition in which two or more works, also published separately, are combined in a single volume. Our favourite: https://www.waterstones.com/book/the-hitchhikers-guide-to-the-galaxy-omnibus/douglas-adams/9781509852796",
"Edition code 'UXP': Unexpurgated edition, in which content has been restored after an expurgated edition has been published",
"Look at all of the lovely types of non-text content you can tell the book trade about through the magical medium of ONIX 2.1 or 3. https://ns.editeur.org/onix/en/25",
"Beep!!!",
"Online book retailers, don't complain about the abuse of subtitles unless you're willing to put the promotional headline text in a place where a buyer might risk seeing it. *Beep*",
"One of the key strengths of the Thema subject coding system is the national groups who provide locally relevant coding that we all benefit from. Learn more here: https://www.editeur.org/153/Maintenance-and-Support/#thema_ng_and_isc",
"History-related subject codes in Thema are not just tucked in under 'H: History and Archaeology' ... search the codes and you'll find specialist historical topics elsewhere. https://ns.editeur.org/thema/en?utf8=✓&search=history+of&commit=Search",
"Publishers outside the US and Canada often ask us, 'Is it necessary to add BISAC subject codes?'. Answer: 'Only if you want to sell books internationally. So yes it is'",
"Interested in adopting a new technology? Start by understanding what problems the technology can solve. If those are not what you need solving, move on!",
"During initial product planning you may not know what your final product dimensions, particularly the weight, are going to be. Get a reasonable estimate in there based on page trim, number of pages, and format, and correct when the proofs are in.",
"Early, reasonably accurate metadata that is corrected when more information is available is much better than waiting until you are 100% sure. People want to buy your books – give them as many reasons to as early as you can!",
"Thinking about rights sales? If not, you and your authors may be missing out. Cultivating good relationships with foreign publishers with similar programmes to your own will benefit everyone!",
"Don't treat your books as ephemeral sales products. With ebooks and POD they can live forever, so create quality metadata for the long haul, and periodically review for freshness (particularly if the author's following has grown!)",
"Three letter edition codes internationalise your metadata and make it easier to classify. My favourite is BLP! What's yours? https://ns.editeur.org/onix/en/21",
"Edition type codes to be familiar with when publishing for schools: STU, TCH, SCH, SMP, CSP, CRI, ANN, ABR, ACT. Any others you can think of? https://ns.editeur.org/onix/en/21",
"Catalogue planning? Don'tcha just hate it? But InDesign can read ONIX!  Start with a template, use XSLT to extract the data on import, take the rest of the day off as a publishing hero! https://generalproducts.co/blog/how-to-create-a-catalogue-automatically-using-onix-and-indesign/",
"Does your book take place in one or more real places? Perhaps in one or more particular time periods? Great! Then you'll have added subject coding in Thema, BIC and BISAC to make it discoverable!",
"Publishing status ‘Postponed indefinitely’: “It's not cancelled, we're just not confident enough to give this a likely publishing date. Watch this space!”" ,
"The authoritative source of all things ISBN: http://www.bic.org.uk/files/pdfs/BIC%20BITES/BIC%20Bites%20International%20Standard%20Book%20Number_FINAL.pdf",
"If you find the full ISBN User Manual to be a little indigestible, have a nibble on this Bite from @BIC1UK: http://www.bic.org.uk/files/pdfs/BIC%20BITES/BIC%20Bites%20International%20Standard%20Book%20Number_FINAL.pdf",
"New price? Same ISBN. New size? New ISBN. New content? Probably new ISBN. New publisher? New ISBN for new stock. New DRM? New ISBN. Read more? http://www.bic.org.uk/files/pdfs/BIC%20BITES/BIC%20Bites%20International%20Standard%20Book%20Number_FINAL.pdf",
"Books with editors and authors may display the contributors in an undesirable order on Amazon. Code authors as “A32: Contributions by” for Amazon to list them after any “B01: Edited by“ contributors!",
"In audio book metadata, the contributor roles “E01: Actor”, “E03: Narrator” and “E07: Read by” are easily confused. Be sure to read the notes on when to use which: https://ns.editeur.org/onix/en/17",
"Well done on snagging a high profile person to write that introduction/preface/foreword/afterword. You've credited them in metadata with the appropriate contributor code, so their contribution is discoverable through retailers? https://ns.editeur.org/onix/en/17",
"All publishers should know the trick of searching the ONIX Code Lists for relevant phrases: the results give unusual insights into effective ways of using ONIX for Books: https://ns.editeur.org/onix/en?utf8=✓&search=comic+book&commit=Search",
"ISBN-A: The hybrid offspring of DOIs ISBNs, in which an ISBN is represented in DOI format. The “A” stands for “Actionable”. Read more here! https://www.doi.org/factsheets/ISBN-A.html",
"Re-issuing an older EPUB 2 book in the newer EPUB 3 version? That's “significant changes in the physical or digital characteristics” right there. New ISBN.",
"Freshening up a dated cover for a long-tail solid selling product? Probably no new ISBN required! That's a few Earth Currency Units saved right there.",
"DVD! ISBN? Only if it is educational/instructional! Octonauts? Oooh, grey area!",
"Switching from Litho to POD? Small dimension changes are common, and metadata must be updated. Probably no new ISBN required though."
  ]
}

{
       "BISAC": "BISAC is a subject scheme used primarily in North America, and managed by BISG. See more information here: https://bisg.org",
       "ISBN": "International Standard Book Numbers are used for identifying text-based products. See more information here: https://www.isbn-international.org",
       "ISNI": "International Standard Name Identifiers are used for identifying and disambiguating public personae, such as book authors or musicians. See more information here: http://www.isni.org",
       "ONIX": "A series of international standards for book industry data interchange.  See more information here: https://www.editeur.org/8/ONIX/",
        "Thema": "A relatively new subject scheme with a strong international background.  See more information here: https://www.editeur.org/151/Thema/",
  "hello": "hello there!",
        "[h|H][E|e][L|l][P|p]": "#origin#",
  ".": "*#sounds#*"
}




