Missing product form

+--------+-----------------------------------------------------+------------+---------------+------+-------+
| ID     | Title                                               | Pub Date   | ISBN          | Form | Notes |
+--------+-----------------------------------------------------+------------+---------------+------+-------+
| 122641 | Alice's Adventures under Ground Book of Days        | 1998-09-01 | 9780712346030 | 00   |       |
| 122818 | British Library Crime Clasics Collection 6 Book Set | 2015-05-13 | 9780712356275 | 00   |       |
+--------+-----------------------------------------------------+------------+---------------+------+-------+

Mixed media

+--------+-------------------------------------------------------------------+------------+---------------+
| URL    | Product                                                           | Pub Date   | ISBN          |
+--------+-------------------------------------------------------------------+------------+---------------+
| 122985 | Making of the United Kingdom                                      | 1905-06-20 | 9780712343107 |
| 122973 | Sources in History: Britain: 1750-1900                            | 1999-12-15 | 9780712346122 |
| 122919 | Trinity Apocalypse                                                | 2005-04-01 | 9780712348720 |
| 122847 | Rudyard Kipling                                                   | 2009-02-01 | 9780712350730 |
| 122788 | British Book Trade 1475-1890                                      | 2009-02-01 | 9780712350594 |
| 122763 | English Short Title Catalogue 1473-1800 on CD-Rom                 | 1996-10-01 | 9780712304955 |
| 122675 | Aural History: Essays on Recorded Sound                           | 2001-09-15 | 9780712347419 |
| 122664 | Tom Stoppard                                                      | 2010-10-20 | 9780712349666 |
| 122645 | Electronic "Beowulf": IBM/Macintosh                               | 1998-07-31 | 9780712304948 |
| 122478 | Taymouth Hours                                                    | 2012-05-10 | 9780712358699 |
| 122413 | Durham Liber Vitae                                                | 2007-10-01 | 9780712349864 |
| 122232 | Maps in the Atlases of the British Library                        | 2004-04-01 | 9780712347990 |
| 122102 | Writing Life                                                      | 2011-02-17 | 9780712351089 |
| 121666 | Mapping the World                                                 | 1995-07-31 | 9780712304221 |
| 121641 | Medieval Crafts: Men and Women at Work: Picture Resource Pack     | 1996-01-01 | 9780712304283 |
| 121638 | Victorian India: Tea Garden of the World: Teachers' Resource Pack | 1995-12-01 | 9780712304276 |
+--------+-------------------------------------------------------------------+------------+---------------+

No price

+--------+----------------------+------------+---------------+------------------+------+
| ID     | Title                | Pub Date   | ISBN          | Pub status       | Form |
+--------+----------------------+------------+---------------+------------------+------+
| 122620 | Libraries of the Fut |            | 9781853793905 | 07: Out of print | BC   |
| 122902 | Model for Assessing  | 1998-12-31 | 9780712397254 | 07: Out of print | BC   |
| 122711 | Talking Photography  | 1998-12-31 | 9780712346085 | 07: Out of print | BC   |
+--------+----------------------+------------+---------------+------------------+------+


Duplicate contributors

+--------+---------------------------------+-------+------------+--------------+
| ID     | Name                            | Works | Pub. texts | Author texts |
+--------+---------------------------------+-------+------------+--------------+
| 102448 | Frederick B. Adams              | 1     | 0          | 0            |
| 102264 | Charles Warren Adams            | 2     | 0          | 0            |
| 102685 | Roy J. Adams                    | 2     | 0          | 0            |
| 102705 | R. C. Alston                    | 5     | 0          | 0            |
| 103305 | Robin Carfrae Alston            | 1     | 0          | 0            |
| 103087 | Janice Anderson                 | 1     | 0          | 0            |
| 102842 | Dorothy Anderson                | 1     | 0          | 0            |
| 103227 | Robert Anderson                 | 1     | 0          | 0            |
| 102800 | Caroline Archer                 | 1     | 0          | 0            |
| 103317 | Mildred Archer                  | 1     | 0          | 0            |
| 103366 | Stephen Ashton                  | 1     | 0          | 0            |
| 102594 | Steve Ashton                    | 1     | 0          | 0            |
| 102661 | Stephen Richard Ashton          | 1     | 0          | 0            |
| 103570 | Lois Austen-Leigh               | 1     | 0          | 0            |
| 102783 | William Austen-Leigh            | 1     | 0          | 0            |
| 103205 | Ronald Baker                    | 1     | 0          | 0            |
| 103241 | William Baker                   | 3     | 0          | 0            |
| 103246 | Baker Baker                     | 1     | 0          | 0            |
| 102959 | C.F. Baker                      | 1     | 0          | 0            |
| 103440 | David Baker                     | 1     | 0          | 0            |
| 103128 | Colin Baker                     | 3     | 0          | 0            |
| 102752 | Stuart Ball                     | 1     | 0          | 0            |
| 103012 | Ruth Ball                       | 1     | 0          | 0            |
| 102653 | Chris Banks                     | 1     | 0          | 0            |
| 103336 | C.A. Banks                      | 1     | 0          | 0            |
| 102920 | Peter Barber                    | 4     | 0          | 0            |
| 103215 | Giles Barber                    | 1     | 0          | 0            |
| 102362 | Charles Barber                  | 1     | 0          | 0            |
| 102857 | P. Barber                       | 1     | 0          | 0            |
| 102457 | Nicolas Barker                  | 9     | 0          | 0            |
| 103560 | George Barker                   | 1     | 0          | 0            |
| 102504 | Nicholas Barker                 | 4     | 0          | 0            |
| 102520 | Robert Barnard                  | 1     | 0          | 0            |
| 103249 | Mark Barnard                    | 1     | 0          | 0            |
| 103424 | Lorna C. Beckett                | 1     | 0          | 0            |
| 102443 | Samuel Beckett                  | 1     | 0          | 0            |
| 102828 | Nicolas Bell                    | 1     | 0          | 0            |
| 102720 | Alan Bell                       | 1     | 0          | 0            |
| 103447 | Quentin Bell                    | 1     | 0          | 0            |
| 102468 | David N. Bell                   | 1     | 0          | 0            |
| 103075 | Hazel K. Bell                   | 1     | 0          | 0            |
| 102303 | Sarah Bendall                   | 1     | 0          | 0            |
| 102737 | A.Sarah Bendall                 | 1     | 0          | 0            |
| 103082 | Richard J. Bennett              | 1     | 0          | 0            |
| 102696 | Stuart Bennett                  | 1     | 0          | 0            |
| 103377 | Bennett Bennett                 | 1     | 0          | 0            |
| 102418 | Quentin Blake                   | 1     | 0          | 0            |
| 102534 | David Blake                     | 1     | 0          | 0            |
| 103056 | B.C. Bloomfield                 | 1     | 0          | 0            |
| 102318 | Valerie Bloomfield              | 1     | 0          | 0            |
| 102451 | J.F. Blumhardt                  | 5     | 0          | 0            |
| 103078 | James Fuller Blumhardt          | 1     | 0          | 0            |
| 103326 | Judith Bowen                    | 1     | 0          | 0            |
| 102676 | J. Bowen                        | 1     | 0          | 0            |
| 102945 | Catherine Bradley               | 1     | 0          | 0            |
| 102993 | Sue M Bradley                   | 1     | 0          | 0            |
| 102393 | Felicity Bray                   | 1     | 0          | 0            |
| 103161 | Julia Ashtiany Bray             | 1     | 0          | 0            |
| 102266 | British Library British Library | 84    | 0          | 0            |
| 102963 | The British Library             | 9     | 0          | 0            |
| 102293 | Michelle P. Brown               | 17    | 0          | 0            |
| 102278 | Sally Brown                     | 4     | 0          | 0            |
| 103378 | P.A.H. Brown                    | 1     | 0          | 0            |
| 103330 | Haydn Brown                     | 1     | 0          | 0            |
| 103189 | Alice Brown                     | 1     | 0          | 0            |
| 102400 | Yu Ying Brown                   | 2     | 0          | 0            |
| 102727 | Malcolm Brown                   | 1     | 0          | 0            |
| 102558 | Charles Burnett                 | 1     | 0          | 0            |
| 102525 | T.A.J. Burnett                  | 1     | 0          | 0            |
| 102283 | Colin Burrow                    | 1     | 0          | 0            |
| 102285 | Donald Burrow                   | 1     | 0          | 0            |
| 103516 | Ramsey Campbell                 | 2     | 0          | 0            |
| 102453 | Tony Campbell                   | 1     | 0          | 0            |
| 102384 | James P. Carley                 | 4     | 0          | 0            |
| 103314 | J.P. Carley                     | 1     | 0          | 0            |
| 102951 | Michael Carter                  | 1     | 0          | 0            |
| 102456 | John Carter                     | 1     | 0          | 0            |
| 103563 | Angela Carter                   | 1     | 0          | 0            |
| 102837 | Peter D. Clarke                 | 1     | 0          | 0            |
| 103119 | Andrea Clarke                   | 2     | 0          | 0            |
| 102375 | J.E. Clarke                     | 2     | 0          | 0            |
| 102428 | Minta Collins                   | 2     | 0          | 0            |
| 103401 | H. Collins                      | 1     | 0          | 0            |
| 102809 | A. J. Collins                   | 1     | 0          | 0            |
| 102777 | Karen Severud Cook              | 1     | 0          | 0            |
| 102508 | S. Cook                         | 1     | 0          | 0            |
| 103328 | Ruth Cowley                     | 1     | 0          | 0            |
| 102404 | John Cowley                     | 1     | 0          | 0            |
| 102551 | Thomas Crane                    | 1     | 0          | 0            |
| 103383 | Walter Crane                    | 1     | 0          | 0            |
| 102839 | David Crystal                   | 2     | 0          | 0            |
| 103585 | Ben Crystal                     | 1     | 0          | 0            |
| 102272 | Rodney Dale                     | 9     | 0          | 0            |
| 102570 | Peter Dale                      | 2     | 0          | 0            |
| 103373 | P. Dale                         | 1     | 0          | 0            |
| 102517 | Henry Dale                      | 2     | 0          | 0            |
| 103285 | F.J.Harvey Darton               | 1     | 0          | 0            |
| 103148 | Lawrence Darton                 | 1     | 0          | 0            |
| 103213 | Ron Davies                      | 1     | 0          | 0            |
| 102479 | Martin Davies                   | 5     | 0          | 0            |
| 102682 | Matthew Day                     | 2     | 0          | 0            |
| 103104 | Timothy Day                     | 1     | 0          | 0            |
| 102968 | Gregory Doran                   | 2     | 0          | 0            |
| 102639 | Susan Doran                     | 3     | 0          | 0            |
| 103023 | Arthur Conan Doyle              | 5     | 0          | 0            |
| 103524 | Ian Doyle                       | 1     | 0          | 0            |
| 102398 | Kathleen Doyle                  | 3     | 0          | 0            |
| 103437 | Eden Eden                       | 1     | 0          | 0            |
| 102302 | Peter Eden                      | 1     | 0          | 0            |
| 102931 | Martin Edwards                  | 18    | 0          | 0            |
| 102282 | A. S. G. Edwards                | 10    | 0          | 0            |
| 102555 | E. Edwards                      | 1     | 0          | 0            |
| 102822 | A.G. Ellis                      | 1     | 0          | 0            |
| 102543 | Henry J. Ellis                  | 1     | 0          | 0            |
| 102601 | Margaret Kinnell Evans          | 3     | 0          | 0            |
| 103520 | Roger Evans                     | 1     | 0          | 0            |
| 102371 | Mark Evans                      | 2     | 0          | 0            |
| 102526 | Imogen Evans                    | 1     | 0          | 0            |
| 102976 | Herbert Farjeon                 | 3     | 0          | 0            |
| 102975 | Eleanor Farjeon                 | 3     | 0          | 0            |
| 102957 | J. Jefferson Farjeon            | 5     | 0          | 0            |
| 102681 | Anthony Farrington              | 5     | 0          | 0            |
| 102848 | Tony Farrington                 | 1     | 0          | 0            |
| 102618 | A.J. Farrington                 | 1     | 0          | 0            |
| 102732 | A. Farrington                   | 1     | 0          | 0            |
| 103092 | John Gold Finch                 | 2     | 0          | 0            |
| 103338 | S. Finch                        | 1     | 0          | 0            |
| 102330 | Helen Finch                     | 1     | 0          | 0            |
| 102657 | Brian J. Ford                   | 1     | 0          | 0            |
| 103576 | Lily Ford                       | 1     | 0          | 0            |
| 103202 | Geoffrey Ford                   | 1     | 0          | 0            |
| 102662 | Annabel Teh Gallop              | 2     | 0          | 0            |
| 102694 | A. Gallop                       | 1     | 0          | 0            |
| 102392 | Victoria Gardner                | 1     | 0          | 0            |
| 103374 | K.B. Gardner                    | 1     | 0          | 0            |
| 102257 | Albertine Gaur                  | 11    | 0          | 0            |
| 103361 | Ganesh Gaur                     | 1     | 0          | 0            |
| 102334 | Martin Gilbert                  | 1     | 0          | 0            |
| 103531 | Maria L. Gilbert                | 1     | 0          | 0            |
| 102863 | Alexandra Gillespie             | 1     | 0          | 0            |
| 102817 | Vincent Gillespie               | 2     | 0          | 0            |
| 103278 | Richard Goulden                 | 1     | 0          | 0            |
| 103198 | R.J. Goulden                    | 1     | 0          | 0            |
| 103143 | James N. Green                  | 1     | 0          | 0            |
| 102514 | Michael Green                   | 1     | 0          | 0            |
| 102911 | Christopher Green               | 1     | 0          | 0            |
| 102446 | Jeremy Griffiths                | 7     | 0          | 0            |
| 103261 | Antony Griffiths                | 1     | 0          | 0            |
| 102819 | David N. Griffiths              | 1     | 0          | 0            |
| 102563 | Dennis Griffiths                | 1     | 0          | 0            |
| 103412 | Jacob Grimm                     | 1     | 0          | 0            |
| 103413 | Wilhelm Grimm                   | 1     | 0          | 0            |
| 103269 | Lesley Hall                     | 1     | 0          | 0            |
| 103059 | J. Hall                         | 1     | 0          | 0            |
| 102360 | Michael Harris                  | 15    | 0          | 0            |
| 102516 | P.R. Harris                     | 2     | 0          | 0            |
| 103233 | Philip R. Harris                | 1     | 0          | 0            |
| 102717 | Francis Harris                  | 1     | 0          | 0            |
| 103420 | M. Harris                       | 1     | 0          | 0            |
| 102310 | Frances Harris                  | 2     | 0          | 0            |
| 103177 | Edward Herbert                  | 1     | 0          | 0            |
| 103208 | Patricia Herbert                | 1     | 0          | 0            |
| 102706 | B.S. Hill                       | 1     | 0          | 0            |
| 103537 | John Hill                       | 1     | 0          | 0            |
| 102348 | S.C. Hill                       | 2     | 0          | 0            |
| 103072 | Gillian Hill                    | 1     | 0          | 0            |
| 102593 | Peter Hogg                      | 1     | 0          | 0            |
| 102851 | Peter C. Hogg                   | 3     | 0          | 0            |
| 102422 | Kenneth William Humphreys       | 1     | 0          | 0            |
| 103063 | K.W. Humphreys                  | 1     | 0          | 0            |
| 102405 | Eric Inglis                     | 1     | 0          | 0            |
| 102924 | Katherine Inglis                | 1     | 0          | 0            |
| 102609 | Lotta Jackson                   | 1     | 0          | 0            |
| 103403 | Donald Jackson                  | 1     | 0          | 0            |
| 103543 | Deirdre Jackson                 | 1     | 0          | 0            |
| 103018 | Kate Jackson                    | 1     | 0          | 0            |
| 103464 | Karen I. James                  | 1     | 0          | 0            |
| 102730 | Elizabeth James                 | 3     | 0          | 0            |
| 102786 | Kristian Jensen                 | 1     | 0          | 0            |
| 103315 | K. Friis Jensen                 | 1     | 0          | 0            |
| 103011 | Alex Johnson                    | 2     | 0          | 0            |
| 102313 | Arthur W. Johnson               | 1     | 0          | 0            |
| 102510 | Lorraine Johnson                | 1     | 0          | 0            |
| 102591 | Francis R. Johnson              | 1     | 0          | 0            |
| 103506 | Beti Jones                      | 1     | 0          | 0            |
| 102903 | David Wyn Jones                 | 1     | 0          | 0            |
| 102940 | Carolyn M. Jones                | 1     | 0          | 0            |
| 103071 | N. Jones                        | 1     | 0          | 0            |
| 103147 | Peter Murray Jones              | 1     | 0          | 0            |
| 102277 | Hilton Kelliher                 | 5     | 0          | 0            |
| 103354 | W.H. Kelliher                   | 1     | 0          | 0            |
| 103266 | Edmund M.B. King                | 1     | 0          | 0            |
| 102820 | Alexander Hyatt King            | 4     | 0          | 0            |
| 102633 | Deidre Le Faye                  | 1     | 0          | 0            |
| 102638 | Deirdre Le Faye                 | 2     | 0          | 0            |
| 102789 | R.:Storey Levy                  | 1     | 0          | 0            |
| 102859 | Philippa Levy                   | 1     | 0          | 0            |
| 102488 | Helen Lewins                    | 1     | 0          | 0            |
| 103135 | H.Pain- Lewins                  | 1     | 0          | 0            |
| 102465 | Jeremiah P. Losty               | 4     | 0          | 0            |
| 102613 | J. P. Losty                     | 3     | 0          | 0            |
| 102844 | Patricia Lovett                 | 4     | 0          | 0            |
| 103052 | Charles C. Lovett               | 1     | 0          | 0            |
| 103035 | Stewart MacKay                  | 1     | 0          | 0            |
| 102423 | Barry Mackay                    | 1     | 0          | 0            |
| 103223 | Steven W. May                   | 1     | 0          | 0            |
| 102943 | San San May                     | 1     | 0          | 0            |
| 103319 | Ruari McLean                    | 2     | 0          | 0            |
| 102577 | Ronald McLean                   | 1     | 0          | 0            |
| 102419 | David M. Miller                 | 1     | 0          | 0            |
| 102490 | Edward John Miller              | 1     | 0          | 0            |
| 102761 | Martin Moir                     | 1     | 0          | 0            |
| 102808 | M. Moir                         | 1     | 0          | 0            |
| 103047 | A. Morris                       | 2     | 0          | 0            |
| 102459 | B. Morris                       | 1     | 0          | 0            |
| 102701 | Marlene Morrison                | 2     | 0          | 0            |
| 103517 | Elizabeth Morrison              | 1     | 0          | 0            |
| 102713 | Alastair Morrison               | 1     | 0          | 0            |
| 103391 | Suzanne Nash                    | 1     | 0          | 0            |
| 102665 | Paul Nash                       | 1     | 0          | 0            |
| 103359 | H.G.H. Nelson                   | 1     | 0          | 0            |
| 102573 | B. Nelson                       | 1     | 0          | 0            |
| 103050 | Dennis Nicholson                | 1     | 0          | 0            |
| 102561 | Steve Nicholson                 | 1     | 0          | 0            |
| 102606 | Margaret Annie Eugenie Nickson  | 1     | 0          | 0            |
| 102866 | M.A.E. Nickson                  | 2     | 0          | 0            |
| 102927 | Gil North                       | 2     | 0          | 0            |
| 102331 | Cathy North                     | 1     | 0          | 0            |
| 103370 | Mike Parker                     | 1     | 0          | 0            |
| 102621 | D. C. Parker                    | 1     | 0          | 0            |
| 103296 | David Parker                    | 1     | 0          | 0            |
| 102649 | Ann Payne                       | 2     | 0          | 0            |
| 103458 | Glynn Payne                     | 1     | 0          | 0            |
| 103036 | Mervyn Peake                    | 4     | 0          | 0            |
| 103554 | Sebastian Peake                 | 1     | 0          | 0            |
| 102741 | Ernest Cromwell Peake           | 1     | 0          | 0            |
| 103555 | Fabian Peake                    | 1     | 0          | 0            |
| 102295 | Rob Perks                       | 2     | 0          | 0            |
| 102332 | Robert Perks                    | 1     | 0          | 0            |
| 103245 | Phillips Phillips               | 1     | 0          | 0            |
| 102641 | Michael Phillips                | 1     | 0          | 0            |
| 103415 | Tim M. Reed                     | 1     | 0          | 0            |
| 102506 | Tony Reed                       | 1     | 0          | 0            |
| 102578 | David Reed                      | 1     | 0          | 0            |
| 102447 | Dennis E. Rhodes                | 3     | 0          | 0            |
| 103164 | Dennis Rhodes                   | 1     | 0          | 0            |
| 103390 | David Alan Richards             | 1     | 0          | 0            |
| 102515 | Huw Richards                    | 1     | 0          | 0            |
| 103577 | S. C. Roberts                   | 1     | 0          | 0            |
| 102280 | Gareth Roberts                  | 2     | 0          | 0            |
| 102868 | Jane Roberts                    | 1     | 0          | 0            |
| 102628 | Charles Robinson                | 1     | 0          | 0            |
| 103168 | P. R. Robinson                  | 1     | 0          | 0            |
| 102620 | J. Robinson                     | 1     | 0          | 0            |
| 103048 | Peter Ross                      | 1     | 0          | 0            |
| 103250 | John C. Ross                    | 2     | 0          | 0            |
| 102643 | S. Ross                         | 1     | 0          | 0            |
| 103062 | Mary A. Rouse                   | 1     | 0          | 0            |
| 103061 | Richard H. Rouse                | 1     | 0          | 0            |
| 102372 | Kathleen L. Scott               | 2     | 0          | 0            |
| 103157 | David Scott                     | 1     | 0          | 0            |
| 102797 | Margaret Scott                  | 1     | 0          | 0            |
| 102646 | Peter J. Seddon                 | 2     | 0          | 0            |
| 102835 | Kenneth R. Seddon               | 1     | 0          | 0            |
| 103313 | R. Sharpe                       | 1     | 0          | 0            |
| 102436 | John Sharpe                     | 1     | 0          | 0            |
| 103434 | Kevin Sharpe                    | 1     | 0          | 0            |
| 103550 | George Bernard Shaw             | 1     | 0          | 0            |
| 102772 | Simon Shaw                      | 1     | 0          | 0            |
| 103106 | Matthew Shaw                    | 1     | 0          | 0            |
| 102396 | David J. Shaw                   | 2     | 0          | 0            |
| 102616 | Graham Shaw                     | 2     | 0          | 0            |
| 103344 | J.S.G. Simmons                  | 1     | 0          | 0            |
| 103299 | R.C. Simmons                    | 1     | 0          | 0            |
| 102489 | Sylvia Simmons                  | 1     | 0          | 0            |
| 102954 | George Sims                     | 2     | 0          | 0            |
| 103275 | John Merriman Sims              | 1     | 0          | 0            |
| 103095 | Kathryn Ann Smith               | 1     | 0          | 0            |
| 102792 | Catherine Delano Smith          | 2     | 0          | 0            |
| 102763 | Helen R. Smith                  | 2     | 0          | 0            |
| 102585 | David M. Smith                  | 1     | 0          | 0            |
| 102938 | Andrew Smith                    | 2     | 0          | 0            |
| 102410 | C. Smith                        | 1     | 0          | 0            |
| 102971 | Stevie Smith                    | 2     | 0          | 0            |
| 102738 | Lorenzo N. Smith                | 1     | 0          | 0            |
| 102739 | Margaret M. Smith               | 1     | 0          | 0            |
| 102608 | Gaye Smith                      | 1     | 0          | 0            |
| 103273 | G.R. Smith                      | 1     | 0          | 0            |
| 103040 | Joan M. Smith                   | 1     | 0          | 0            |
| 103499 | Leslie Smith                    | 1     | 0          | 0            |
| 102806 | Kathryn Smith                   | 1     | 0          | 0            |
| 103389 | Konstantinos Sp. Staikos        | 1     | 0          | 0            |
| 102376 | Konstantinos S. Staikos         | 1     | 0          | 0            |
| 102652 | Andy Stephens                   | 1     | 0          | 0            |
| 103039 | Andrew Stephens                 | 1     | 0          | 0            |
| 103008 | Juliet Stevenson                | 1     | 0          | 0            |
| 103486 | Iain Stevenson                  | 1     | 0          | 0            |
| 103178 | Eric Stockdale                  | 1     | 0          | 0            |
| 102370 | Rachel Stockdale                | 1     | 0          | 0            |
| 102449 | David C. Sutton                 | 1     | 0          | 0            |
| 103194 | S.C. Sutton                     | 1     | 0          | 0            |
| 103445 | James Sutton                    | 1     | 0          | 0            |
| 102946 | David Sutton                    | 1     | 0          | 0            |
| 102574 | Barry Taylor                    | 2     | 0          | 0            |
| 103498 | Jane Taylor                     | 1     | 0          | 0            |
| 102748 | Marcia Wicker Taylor            | 1     | 0          | 0            |
| 103423 | Timothy N. Thomas               | 1     | 0          | 0            |
| 103342 | Christine G. Thomas             | 1     | 0          | 0            |
| 103565 | Natalie Thomas                  | 1     | 0          | 0            |
| 102482 | Susan Otis Thompson             | 1     | 0          | 0            |
| 102352 | Robert J. Thompson              | 1     | 0          | 0            |
| 103569 | Rodney M. Thomson               | 1     | 0          | 0            |
| 103316 | R. M. Thomson                   | 1     | 0          | 0            |
| 102780 | Hamish Todd                     | 1     | 0          | 0            |
| 102317 | William B. Todd                 | 1     | 0          | 0            |
| 103409 | C C Tripathi                    | 1     | 0          | 0            |
| 103203 | Usha Tripathi                   | 1     | 0          | 0            |
| 103407 | Etal Tripathi                   | 1     | 0          | 0            |
| 103251 | P.McLaren- Turner               | 2     | 0          | 0            |
| 102394 | Christopher Turner              | 1     | 0          | 0            |
| 103191 | David H. Turner                 | 1     | 0          | 0            |
| 103337 | J.Rigbie Turner                 | 1     | 0          | 0            |
| 102655 | Malcolm Turner                  | 1     | 0          | 0            |
| 103186 | Derek Howard Turner             | 1     | 0          | 0            |
| 103211 | Peter Vickers                   | 1     | 0          | 0            |
| 103110 | Stephen C. Vickers              | 2     | 0          | 0            |
| 103429 | M.I. Waley                      | 1     | 0          | 0            |
| 103433 | Daniel Philip Waley             | 1     | 0          | 0            |
| 102930 | Laura Walker                    | 1     | 0          | 0            |
| 102564 | Julian Walker                   | 2     | 0          | 0            |
| 102458 | Rose Walker                     | 1     | 0          | 0            |
| 103443 | Stephen Walker                  | 1     | 0          | 0            |
| 103365 | Katherine Meikle Walker         | 1     | 0          | 0            |
| 102915 | Alison Walker                   | 1     | 0          | 0            |
| 103134 | T J Watkins                     | 1     | 0          | 0            |
| 102612 | Watkins Watkins                 | 1     | 0          | 0            |
| 103174 | A.G. Watson                     | 2     | 0          | 0            |
| 102760 | Andrew G. Watson                | 1     | 0          | 0            |
| 102756 | Carolyn J. Watson               | 1     | 0          | 0            |
| 103201 | Rosemary Wells                  | 1     | 0          | 0            |
| 103556 | H G Wells                       | 1     | 0          | 0            |
| 102412 | Brenda White                    | 3     | 0          | 0            |
| 102912 | Colin White                     | 1     | 0          | 0            |
| 103232 | F.C.P. White                    | 1     | 0          | 0            |
| 103349 | Bruce White                     | 1     | 0          | 0            |
| 102432 | Peter Whitfield                 | 13    | 0          | 0            |
| 102873 | Roderick Whitfield              | 1     | 0          | 0            |
| 102872 | Susan Whitfield                 | 4     | 0          | 0            |
| 103281 | Williams Williams               | 1     | 0          | 0            |
| 102596 | Robert Deryck Williams          | 1     | 0          | 0            |
| 103584 | Brian Williams                  | 1     | 0          | 0            |
| 102630 | Thomas D. Wilson                | 2     | 0          | 0            |
| 103149 | I.R. Wilson                     | 1     | 0          | 0            |
| 103117 | Colin St. John Wilson           | 1     | 0          | 0            |
| 102858 | Neil Wilson                     | 1     | 0          | 0            |
| 103388 | H.C. Wilson                     | 1     | 0          | 0            |
| 103346 | C.Ernest Wright                 | 1     | 0          | 0            |
| 102736 | David H. Wright                 | 1     | 0          | 0            |
| 103086 | Christopher Wright              | 2     | 0          | 0            |
+--------+---------------------------------+-------+------------+--------------+


dodgy contact names

+-------+----------------------------------------------------+----------+----------------------------------------------------+---------------+--------+------+-------+
| Title | Name b4 🔑                                         | 🔑prefix | 🔑 name                                            | name after 🔑 | suffix | qual | title |
+-------+----------------------------------------------------+----------+----------------------------------------------------+---------------+--------+------+-------+
|       | University of Toronto Press                        |          | University of Toronto Press                        |               |        |      |       |
|       | Orlaith                                            |          | O'Sullivan                                         |               |        |      |       |
|       | Marcel                                             |          | Destombes, Marcel                                  |               |        |      |       |
|       | Patrick                                            |          | O'Brian                                            |               |        |      |       |
|       | Isma'il Ibn Al-Kasim Al-Kali                       |          | Isma'il Ibn Al-Kasim Al-Kali                       |               |        |      |       |
|       | Isma'il ibn Al-Kasum                               |          | Al-Kali                                            |               |        |      |       |
|       | India Office Library and Records                   |          | India Office Library and Records                   |               |        |      |       |
|       | Associates                                         |          | Brown,David J.,Associates                          |               |        |      |       |
|       | R.:Storey                                          |          | Levy                                               |               |        |      |       |
|       | Brummell & Beau                                    |          | Brummell & Beau                                    |               |        |      |       |
|       | Boston                                             |          | Hall and Co, G.K, Boston                           |               |        |      |       |
|       | Edna                                               |          | O'Brien                                            |               |        |      |       |
|       | Mrs Humphrey                                       |          | Mrs Humphrey                                       |               |        |      |       |
|       | M.                                                 |          | O'Neill                                            |               |        |      |       |
|       | George Frideric                                    |          | Handel, George Frideric                            |               |        |      |       |
|       | British Library. Department of Oriental Manuscr... |          | British Library. Department of Oriental Manuscr... |               |        |      |       |
|       | Coopers & Lybrand                                  |          | Coopers & Lybrand                                  |               |        |      |       |
|       | Yolande                                            |          | O'Donoghue                                         |               |        |      |       |
|       | Alderson/Brian                                     |          | Alderson/Brian                                     |               |        |      |       |
|       | Cillian                                            |          | O'Hogan                                            |               |        |      |       |
|       | England)                                           |          | Symposium on the Eighteenth Century Short Title... |               |        |      |       |
|       | M.J.C.                                             |          | O'Keefe                                            |               |        |      |       |
|       | Benjamin                                           |          | O'Mahony                                           |               |        |      |       |
|       | (Respectively                                      |          | (Respectively                                      |               |        |      |       |
|       | St. John's College Oxford)                         |          | and Manuscript Consultant, St. John's College O... |               |        |      |       |
+-------+----------------------------------------------------+----------+----------------------------------------------------+---------------+--------+------+-------+

No contributor

http://app.bibliocloud.com/collections/1907

(79 products)


Common sizes

+--------+-------+------+-------+
| Height | Width | Form | Count |
+--------+-------+------+-------+
| 10     | 130   | BC   | 1     |
| 124    | 140   | AC   | 3     |
| 124    | 142   | AC   | 2     |
| 125    | 140   | AC   | 4     |
| 125    | 140   | DA   | 1     |
| 125    | 142   | AC   | 25    |
| 125    | 142   | WW   | 1     |
| 125    | 143   | AC   | 2     |
| 126    | 144   | AC   | 1     |
| 135    | 0     | BC   | 2     |
| 142    | 124   | AC   | 1     |
| 150    | 114   | BB   | 6     |
| 150    | 220   | BB   | 1     |
| 152    | 100   | BB   | 1     |
| 155    | 100   | BC   | 1     |
| 155    | 130   | BB   | 1     |
| 160    | 120   | 00   | 1     |
| 160    | 120   | BB   | 5     |
| 160    | 120   | PB   | 3     |
| 163    | 100   | BB   | 3     |
| 168    | 131   | BB   | 1     |
| 175    | 95    | BB   | 1     |
| 175    | 113   | BB   | 1     |
| 178    | 115   | BB   | 3     |
| 180    | 130   | BB   | 1     |
| 182    | 92    | BB   | 2     |
| 186    | 123   | BB   | 1     |
| 187    | 124   | BB   | 2     |
| 187    | 132   | BC   | 1     |
| 188    | 125   | BB   | 1     |
| 190    | 130   | BB   | 3     |
| 190    | 130   | BC   | 62    |
| 190    | 132   | BB   | 1     |
| 190    | 132   | BC   | 30    |
| 190    | 150   | BB   | 7     |
| 190    | 150   | BC   | 3     |
| 190    | 210   | BC   | 1     |
| 191    | 133   | BB   | 1     |
| 193    | 132   | BC   | 1     |
| 195    | 130   | BB   | 1     |
| 198    | 130   | BB   | 4     |
| 198    | 130   | BC   | 5     |
| 200    | 130   | BB   | 5     |
| 200    | 130   | BC   | 2     |
| 200    | 140   | BC   | 1     |
| 200    | 165   | BC   | 1     |
| 200    | 170   | BC   | 5     |
| 200    | 0     | BC   | 1     |
| 203    | 155   | BB   | 3     |
| 203    | 224   | BB   | 1     |
| 204    | 120   | BB   | 1     |
| 205    | 156   | BB   | 1     |
| 205    | 156   | BG   | 1     |
| 205    | 166   | BB   | 1     |
| 206    | 167   | BB   | 1     |
| 208    | 149   | BB   | 6     |
| 210    | 135   | BC   | 1     |
| 210    | 140   | BB   | 1     |
| 210    | 145   | BB   | 2     |
| 210    | 146   | BB   | 1     |
| 210    | 146   | BC   | 1     |
| 210    | 147   | BC   | 1     |
| 210    | 148   | BB   | 7     |
| 210    | 148   | BC   | 3     |
| 210    | 149   | BB   | 10    |
| 210    | 150   | BB   | 6     |
| 210    | 0     | BB   | 2     |
| 210    | 0     | BC   | 22    |
| 215    | 135   | BB   | 1     |
| 215    | 138   | BC   | 1     |
| 215    | 170   | BB   | 3     |
| 215    | 186   | BB   | 1     |
| 215    | 195   | BB   | 1     |
| 216    | 138   | BB   | 4     |
| 216    | 138   | BC   | 12    |
| 216    | 140   | BB   | 1     |
| 216    | 280   | WW   | 1     |
| 216    | 0     | BB   | 1     |
| 216    | 0     | BC   | 1     |
| 217    | 242   | BC   | 1     |
| 218    | 137   | BC   | 1     |
| 218    | 150   | BB   | 3     |
| 218    | 152   | BB   | 8     |
| 218    | 0     | BB   | 1     |
| 220    | 140   | BB   | 11    |
| 220    | 140   | BC   | 42    |
| 220    | 148   | BC   | 1     |
| 220    | 155   | BC   | 1     |
| 220    | 170   | BC   | 4     |
| 220    | 180   | BC   | 3     |
| 220    | 195   | BB   | 1     |
| 220    | 0     | BB   | 1     |
| 220    | 0     | BC   | 12    |
| 221    | 141   | BC   | 1     |
| 222    | 166   | BB   | 1     |
| 222    | 222   | BB   | 1     |
| 223    | 156   | BC   | 1     |
| 224    | 150   | BB   | 1     |
| 224    | 182   | BB   | 1     |
| 225    | 150   | BB   | 1     |
| 226    | 152   | BB   | 2     |
| 228    | 150   | BC   | 1     |
| 228    | 152   | BB   | 10    |
| 228    | 152   | BC   | 2     |
| 229    | 150   | BB   | 5     |
| 229    | 152   | BB   | 5     |
| 229    | 155   | BB   | 6     |
| 230    | 150   | BB   | 16    |
| 230    | 150   | BC   | 17    |
| 230    | 155   | BB   | 1     |
| 230    | 170   | BB   | 1     |
| 230    | 180   | BB   | 2     |
| 230    | 220   | BB   | 1     |
| 230    | 220   | BC   | 1     |
| 230    | 0     | BB   | 4     |
| 230    | 0     | BC   | 6     |
| 231    | 180   | BB   | 1     |
| 232    | 155   | BB   | 1     |
| 232    | 175   | BB   | 1     |
| 232    | 311   | BB   | 1     |
| 234    | 152   | BB   | 1     |
| 234    | 156   | BB   | 70    |
| 234    | 156   | BC   | 19    |
| 234    | 156   | WW   | 1     |
| 234    | 172   | BC   | 2     |
| 236    | 156   | BC   | 1     |
| 239    | 156   | BB   | 1     |
| 240    | 150   | BB   | 2     |
| 240    | 160   | BB   | 1     |
| 240    | 160   | BC   | 2     |
| 240    | 162   | BB   | 1     |
| 240    | 165   | BB   | 3     |
| 240    | 170   | BB   | 1     |
| 240    | 175   | BB   | 1     |
| 240    | 180   | BB   | 5     |
| 240    | 180   | BC   | 7     |
| 240    | 185   | BB   | 2     |
| 240    | 185   | BC   | 1     |
| 240    | 190   | BC   | 1     |
| 240    | 200   | BB   | 1     |
| 240    | 200   | BC   | 5     |
| 240    | 210   | BB   | 1     |
| 240    | 210   | BC   | 5     |
| 240    | 212   | BC   | 1     |
| 240    | 220   | BB   | 6     |
| 240    | 220   | BC   | 7     |
| 240    | 310   | BB   | 1     |
| 240    | 0     | BB   | 7     |
| 240    | 0     | BC   | 7     |
| 243    | 182   | BB   | 1     |
| 244    | 156   | BB   | 2     |
| 244    | 160   | BC   | 1     |
| 244    | 168   | BB   | 1     |
| 244    | 171   | BB   | 1     |
| 244    | 172   | BB   | 55    |
| 244    | 172   | BC   | 3     |
| 244    | 172   | WW   | 3     |
| 244    | 174   | BB   | 2     |
| 244    | 0     | BB   | 1     |
| 245    | 172   | BB   | 1     |
| 245    | 174   | BB   | 1     |
| 245    | 245   | BC   | 1     |
| 246    | 170   | BB   | 5     |
| 246    | 176   | BB   | 26    |
| 246    | 176   | BC   | 16    |
| 246    | 176   | WW   | 1     |
| 246    | 189   | BB   | 44    |
| 246    | 189   | BC   | 20    |
| 246    | 189   | PB   | 1     |
| 246    | 189   | PF   | 4     |
| 246    | 198   | BB   | 1     |
| 246    | 252   | BB   | 1     |
| 247    | 141   | BB   | 1     |
| 247    | 174   | BC   | 1     |
| 247    | 176   | BC   | 1     |
| 248    | 160   | BB   | 1     |
| 248    | 160   | BC   | 1     |
| 250    | 151   | BB   | 1     |
| 250    | 160   | BB   | 17    |
| 250    | 160   | BC   | 5     |
| 250    | 170   | BB   | 3     |
| 250    | 170   | BC   | 3     |
| 250    | 172   | BB   | 1     |
| 250    | 176   | BD   | 1     |
| 250    | 190   | BB   | 13    |
| 250    | 190   | BC   | 10    |
| 250    | 200   | BB   | 1     |
| 250    | 210   | BB   | 1     |
| 250    | 215   | BB   | 2     |
| 250    | 228   | BB   | 1     |
| 250    | 230   | BB   | 1     |
| 250    | 240   | BB   | 1     |
| 250    | 240   | BC   | 2     |
| 250    | 0     | BB   | 9     |
| 250    | 0     | BC   | 5     |
| 252    | 193   | BB   | 1     |
| 253    | 177   | BC   | 1     |
| 254    | 125   | BB   | 1     |
| 254    | 176   | BB   | 1     |
| 254    | 178   | BB   | 2     |
| 254    | 190   | BC   | 1     |
| 254    | 203   | BB   | 1     |
| 255    | 160   | BC   | 1     |
| 255    | 178   | BB   | 1     |
| 255    | 178   | BC   | 1     |
| 255    | 186   | BB   | 3     |
| 255    | 190   | BC   | 1     |
| 255    | 192   | BC   | 1     |
| 255    | 238   | BB   | 1     |
| 256    | 158   | BB   | 1     |
| 256    | 185   | BC   | 1     |
| 256    | 222   | BG   | 1     |
| 257    | 198   | BC   | 2     |
| 257    | 0     | BC   | 1     |
| 258    | 200   | BB   | 1     |
| 258    | 201   | BB   | 1     |
| 260    | 170   | BB   | 17    |
| 260    | 200   | BB   | 1     |
| 260    | 200   | BC   | 1     |
| 260    | 246   | BC   | 1     |
| 260    | 0     | BB   | 1     |
| 265    | 180   | BB   | 1     |
| 265    | 186   | BB   | 1     |
| 265    | 186   | BC   | 1     |
| 265    | 214   | BC   | 1     |
| 265    | 0     | BB   | 1     |
| 268    | 263   | BB   | 1     |
| 268    | 263   | BC   | 1     |
| 270    | 180   | BB   | 1     |
| 270    | 200   | BB   | 2     |
| 270    | 210   | BB   | 1     |
| 270    | 220   | BB   | 1     |
| 270    | 220   | BC   | 1     |
| 270    | 232   | BB   | 1     |
| 271    | 191   | BB   | 1     |
| 272    | 160   | BB   | 1     |
| 272    | 160   | BC   | 1     |
| 273    | 216   | BB   | 1     |
| 275    | 216   | BC   | 1     |
| 276    | 189   | BB   | 1     |
| 276    | 210   | BC   | 1     |
| 276    | 216   | BB   | 1     |
| 276    | 219   | BB   | 32    |
| 276    | 219   | BC   | 16    |
| 276    | 219   | WW   | 1     |
| 276    | 0     | BB   | 1     |
| 276    | 0     | WW   | 1     |
| 278    | 181   | BB   | 1     |
| 279    | 181   | BB   | 1     |
| 279    | 203   | BB   | 1     |
| 280    | 190   | BB   | 2     |
| 280    | 210   | BB   | 11    |
| 280    | 210   | BC   | 2     |
| 280    | 215   | BB   | 1     |
| 280    | 216   | BB   | 12    |
| 280    | 216   | BC   | 1     |
| 280    | 220   | BB   | 32    |
| 280    | 220   | BC   | 15    |
| 280    | 222   | BB   | 1     |
| 280    | 222   | BC   | 1     |
| 280    | 270   | BB   | 1     |
| 280    | 360   | BB   | 1     |
| 280    | 0     | BB   | 4     |
| 280    | 0     | BC   | 5     |
| 282    | 210   | BB   | 1     |
| 285    | 188   | BB   | 1     |
| 285    | 200   | BC   | 1     |
| 285    | 210   | BB   | 1     |
| 285    | 220   | BB   | 1     |
| 285    | 220   | BC   | 1     |
| 285    | 240   | BB   | 1     |
| 285    | 262   | BB   | 1     |
| 286    | 210   | BB   | 1     |
| 286    | 210   | BC   | 1     |
| 286    | 262   | BB   | 2     |
| 286    | 262   | BC   | 3     |
| 288    | 210   | BB   | 1     |
| 288    | 210   | BC   | 1     |
| 288    | 230   | BB   | 1     |
| 288    | 230   | BC   | 1     |
| 288    | 245   | BB   | 1     |
| 288    | 245   | BC   | 1     |
| 290    | 200   | BB   | 2     |
| 290    | 210   | BB   | 1     |
| 290    | 210   | BC   | 1     |
| 290    | 216   | BB   | 1     |
| 290    | 219   | BB   | 1     |
| 290    | 219   | BC   | 1     |
| 290    | 220   | BB   | 26    |
| 290    | 220   | BC   | 33    |
| 290    | 230   | BB   | 6     |
| 290    | 230   | BC   | 1     |
| 290    | 235   | BB   | 1     |
| 290    | 245   | BB   | 1     |
| 290    | 245   | BC   | 1     |
| 290    | 262   | BB   | 1     |
| 290    | 262   | BC   | 1     |
| 290    | 0     | BB   | 4     |
| 290    | 0     | BC   | 14    |
| 292    | 210   | BC   | 1     |
| 292    | 216   | BB   | 1     |
| 292    | 229   | BB   | 1     |
| 295    | 0     | BE   | 1     |
| 296    | 210   | BB   | 1     |
| 297    | 190   | BB   | 1     |
| 297    | 210   | BB   | 3     |
| 297    | 210   | BC   | 9     |
| 300    | 168   | BB   | 1     |
| 300    | 210   | BC   | 1     |
| 300    | 230   | BB   | 2     |
| 300    | 0     | BB   | 3     |
| 300    | 0     | BC   | 52    |
| 304    | 228   | BB   | 1     |
| 305    | 195   | BB   | 6     |
| 305    | 216   | BC   | 1     |
| 305    | 267   | BB   | 1     |
| 310    | 240   | BB   | 1     |
| 310    | 380   | BB   | 1     |
| 310    | 0     | BB   | 1     |
| 311    | 232   | BB   | 4     |
| 311    | 232   | BC   | 1     |
| 320    | 250   | BB   | 3     |
| 320    | 250   | BC   | 1     |
| 320    | 0     | BC   | 1     |
| 325    | 242   | BB   | 2     |
| 340    | 220   | BB   | 2     |
| 340    | 250   | BB   | 2     |
| 340    | 420   | BB   | 1     |
| 350    | 225   | BB   | 2     |
| 358    | 229   | BB   | 1     |
| 360    | 245   | BB   | 1     |
| 380    | 250   | BB   | 1     |
| 380    | 280   | BB   | 4     |
| 380    | 300   | BB   | 1     |
| 400    | 570   | BB   | 1     |
| 0      | 0     | 00   | 1     |
| 0      | 0     | AB   | 2     |
| 0      | 0     | AC   | 38    |
| 0      | 0     | BA   | 2     |
| 0      | 0     | BB   | 58    |
| 0      | 0     | BC   | 65    |
| 0      | 0     | CA   | 1     |
| 0      | 0     | CB   | 1     |
| 0      | 0     | CD   | 5     |
| 0      | 0     | DB   | 20    |
| 0      | 0     | MB   | 3     |
| 0      | 0     | PA   | 3     |
| 0      | 0     | PB   | 1     |
| 0      | 0     | PF   | 2     |
| 0      | 0     | PJ   | 3     |
| 0      | 0     | PL   | 2     |
| 0      | 0     | VA   | 5     |
| 0      | 0     | WW   | 7     |
+--------+-------+------+-------+